mysql> select * from test;
+-----+
| Num |
+-----+
|   1 |
|   2 |
|   3 |
+-----+
3 rows in set (0.01 sec)

mysql> select * from test;
Empty set (0.00 sec)

mysql> select * from test;
+-----+
| Num |
+-----+
|   1 |
|   2 |
|   3 |
|   4 |
+-----+
4 rows in set (0.00 sec)

mysql> CREATE TABLE pk_test(id INT NOT NULL AUTO_INCREMENT, name VARCHAR(255), PRIMARY KEY (id));
Query OK, 0 rows affected (0.02 sec)

mysql> DESC pk_test;
+-------+--------------+------+-----+---------+----------------+
| Field | Type         | Null | Key | Default | Extra          |
+-------+--------------+------+-----+---------+----------------+
| id    | int(11)      | NO   | PRI | NULL    | auto_increment |
| name  | varchar(255) | YES  |     | NULL    |                |
+-------+--------------+------+-----+---------+----------------+
2 rows in set (0.00 sec)

mysql> SELECT * FROM pk_test;
+----+-------+
| id | name  |
+----+-------+
|  1 | admin |
|  2 | emp1  |
|  3 | emp2  |
+----+-------+
3 rows in set (0.00 sec)

mysql> SELECT * FROM pk_test;
+----+-------+
| id | name  |
+----+-------+
|  1 | admin |
|  2 | emp1  |
|  3 | emp2  |
| 11 | emp10 |
| 12 | emp11 |
+----+-------+
5 rows in set (0.00 sec)

mysql> INSERT INTO pk_test (id,name) VALUES (16, 'empConflict'), (17, 'otherEmp');
ERROR 1062 (23000): Duplicate entry '16' for key 'PRIMARY'
mysql> SELECT * FROM pk_test;
+----+-------+
| id | name  |
+----+-------+
|  1 | admin |
|  2 | emp1  |
|  3 | emp2  |
| 11 | emp10 |
| 12 | emp11 |
| 15 | emp14 |
| 16 | emp17 |
+----+-------+
7 rows in set (0.00 sec)

mysql> SET SESSION TRANSACTION ISOLATION LEVEL REPEATABLE-READ;
ERROR 1064 (42000): You have an error in your SQL syntax; check the manual that corresponds to your MySQL server version for the right syntax to use near '-READ' at line 1
mysql> SET SESSION TRANSACTION ISOLATION LEVEL REPEATABLE_READ;
ERROR 1064 (42000): You have an error in your SQL syntax; check the manual that corresponds to your MySQL server version for the right syntax to use near 'REPEATABLE_READ' at line 1
mysql> SET SESSION TRANSACTION ISOLATION LEVEL REPEATABLE READ;
Query OK, 0 rows affected (0.00 sec)

mysql> SELECT @@tx_isolation;
+-----------------+
| @@tx_isolation  |
+-----------------+
| REPEATABLE-READ |
+-----------------+
1 row in set, 1 warning (0.00 sec)

mysql> SHOW WARNINGS;
+---------+------+----------------------------------------------------------------------------------------------------------------------+
| Level   | Code | Message                                                                                                              |
+---------+------+----------------------------------------------------------------------------------------------------------------------+
| Warning | 1287 | '@@tx_isolation' is deprecated and will be removed in a future release. Please use '@@transaction_isolation' instead |
+---------+------+----------------------------------------------------------------------------------------------------------------------+
1 row in set (0.00 sec)

mysql> START TRANSACTION
    -> INSERT INTO pk_test (id, name) VALUES (18,tempEmp), (19,tempEmp2);
ERROR 1064 (42000): You have an error in your SQL syntax; check the manual that corresponds to your MySQL server version for the right syntax to use near 'INSERT INTO pk_test (id, name) VALUES (18,tempEmp), (19,tempEmp2)' at line 2
mysql> INSERT INTO pk_test (id, name) VALUES (18,'tempEmp'), (19,'tempEmp2');
Query OK, 2 rows affected (0.00 sec)
Records: 2  Duplicates: 0  Warnings: 0

mysql> ROLLBACK;
Query OK, 0 rows affected (0.00 sec)

mysql> SELECT * FROM pk_test;
+----+----------+
| id | name     |
+----+----------+
|  1 | admin    |
|  2 | emp1     |
|  3 | emp2     |
| 11 | emp10    |
| 12 | emp11    |
| 15 | emp14    |
| 16 | emp17    |
| 18 | tempEmp  |
| 19 | tempEmp2 |
+----+----------+
9 rows in set (0.00 sec)

mysql> START TRANSACTION
    -> INSERT INTO pk_test (id, name) VALUES (5,'5emp'), (6,'6emp');
ERROR 1064 (42000): You have an error in your SQL syntax; check the manual that corresponds to your MySQL server version for the right syntax to use near 'INSERT INTO pk_test (id, name) VALUES (5,'5emp'), (6,'6emp')' at line 2
mysql> START TRANSACTION;
Query OK, 0 rows affected (0.00 sec)

mysql> SELECT * FROM pk_test;
+----+----------+
| id | name     |
+----+----------+
|  1 | admin    |
|  2 | emp1     |
|  3 | emp2     |
| 11 | emp10    |
| 12 | emp11    |
| 15 | emp14    |
| 16 | emp17    |
| 18 | tempEmp  |
| 19 | tempEmp2 |
+----+----------+
9 rows in set (0.00 sec)

mysql> INSERT INTO pk_test (id, name) VALUES (5,'5emp'), (6,'6emp');
Query OK, 2 rows affected (0.00 sec)
Records: 2  Duplicates: 0  Warnings: 0

mysql> SELECT * FROM pk_test;
+----+----------+
| id | name     |
+----+----------+
|  1 | admin    |
|  2 | emp1     |
|  3 | emp2     |
|  5 | 5emp     |
|  6 | 6emp     |
| 11 | emp10    |
| 12 | emp11    |
| 15 | emp14    |
| 16 | emp17    |
| 18 | tempEmp  |
| 19 | tempEmp2 |
+----+----------+
11 rows in set (0.00 sec)

mysql> COMMIT;
Query OK, 0 rows affected (0.00 sec)

mysql> SELECT @@tx_isolation;
+-----------------+
| @@tx_isolation  |
+-----------------+
| REPEATABLE-READ |
+-----------------+
1 row in set, 1 warning (0.00 sec)

mysql> INSERT INTO pk_test (id, name) VALUES (9,'9emp'), (10,'10emp');
ERROR 1062 (23000): Duplicate entry '9' for key 'PRIMARY'
mysql> SET SESSION TRANSACTION ISOLATION LEVEL READ UNCOMMITTED;
Query OK, 0 rows affected (0.00 sec)

mysql> START TRANSACTION;
Query OK, 0 rows affected (0.00 sec)

mysql> INSERT INTO pk_test (id, name) VALUES (4,'4emp'), (7,'7emp');
Query OK, 2 rows affected (0.00 sec)
Records: 2  Duplicates: 0  Warnings: 0

mysql> ROLLBACK;
Query OK, 0 rows affected (0.00 sec)

mysql> INSERT INTO pk_test (id, name) VALUES (4,'4emp'), (7,'7emp');
Query OK, 2 rows affected (0.00 sec)
Records: 2  Duplicates: 0  Warnings: 0

mysql> ROLLBACK;
Query OK, 0 rows affected (0.00 sec)

mysql> COMMIT;
Query OK, 0 rows affected (0.00 sec)

mysql> SELECT * FROM pk_test;
+----+----------+
| id | name     |
+----+----------+
|  1 | admin    |
|  2 | emp1     |
|  3 | emp2     |
|  4 | 4emp     |
|  5 | 5emp     |
|  6 | 6emp     |
|  7 | 7emp     |
|  8 | emp8     |
|  9 | emp9     |
| 11 | emp10    |
| 12 | emp11    |
| 15 | emp14    |
| 16 | emp17    |
| 18 | tempEmp  |
| 19 | tempEmp2 |
+----+----------+
15 rows in set (0.00 sec)

mysql> START TRANSACTION;
Query OK, 0 rows affected (0.00 sec)

mysql> INSERT INTO pk_test (id, name) VALUES (10,'10emp'), (13,'13emp');
Query OK, 2 rows affected (0.00 sec)
Records: 2  Duplicates: 0  Warnings: 0

mysql> COMMIT;
Query OK, 0 rows affected (0.00 sec)

mysql> START TRANSACTION;
Query OK, 0 rows affected (0.00 sec)

mysql> INSERT INTO pk_test (id, name) VALUES (14,'14emp'), (17,'17emp');
Query OK, 2 rows affected (0.00 sec)
Records: 2  Duplicates: 0  Warnings: 0

mysql> COMMIT;
Query OK, 0 rows affected (0.00 sec)

mysql> START TRANSACTION;
Query OK, 0 rows affected (0.00 sec)

mysql> INSERT INTO pk_test (id, name) VALUES (22,'22emp'), (23,'23emp');
Query OK, 2 rows affected (0.00 sec)
Records: 2  Duplicates: 0  Warnings: 0

mysql> SELECT * FROM pk_test;
+----+----------+
| id | name     |
+----+----------+
|  1 | admin    |
|  2 | emp1     |
|  3 | emp2     |
|  4 | 4emp     |
|  5 | 5emp     |
|  6 | 6emp     |
|  7 | 7emp     |
|  8 | emp8     |
|  9 | emp9     |
| 10 | 10emp    |
| 11 | emp10    |
| 12 | emp11    |
| 13 | 13emp    |
| 14 | 14emp    |
| 15 | emp14    |
| 16 | emp17    |
| 17 | 17emp    |
| 18 | tempEmp  |
| 19 | tempEmp2 |
| 20 | emp13    |
| 21 | 14emp    |
| 22 | 22emp    |
| 23 | 23emp    |
| 24 | emp24    |
| 25 | emp25    |
+----+----------+
25 rows in set (0.00 sec)

mysql> ROLLBACK;
Query OK, 0 rows affected (0.00 sec)

mysql> SELECT * FROM pk_test;
+----+----------+
| id | name     |
+----+----------+
|  1 | admin    |
|  2 | emp1     |
|  3 | emp2     |
|  4 | 4emp     |
|  5 | 5emp     |
|  6 | 6emp     |
|  7 | 7emp     |
|  8 | emp8     |
|  9 | emp9     |
| 10 | 10emp    |
| 11 | emp10    |
| 12 | emp11    |
| 13 | 13emp    |
| 14 | 14emp    |
| 15 | emp14    |
| 16 | emp17    |
| 17 | 17emp    |
| 18 | tempEmp  |
| 19 | tempEmp2 |
| 20 | emp13    |
| 21 | 14emp    |
| 24 | emp24    |
| 25 | emp25    |
+----+----------+
23 rows in set (0.00 sec)

mysql> COMMIT;
Query OK, 0 rows affected (0.00 sec)

mysql> SELECT * FROM pk_test;
+----+----------+
| id | name     |
+----+----------+
|  1 | admin    |
|  2 | emp1     |
|  3 | emp2     |
|  4 | 4emp     |
|  5 | 5emp     |
|  6 | 6emp     |
|  7 | 7emp     |
|  8 | emp8     |
|  9 | emp9     |
| 10 | 10emp    |
| 11 | emp10    |
| 12 | emp11    |
| 13 | 13emp    |
| 14 | 14emp    |
| 15 | emp14    |
| 16 | emp17    |
| 17 | 17emp    |
| 18 | tempEmp  |
| 19 | tempEmp2 |
| 20 | emp13    |
| 21 | 14emp    |
| 24 | emp24    |
| 25 | emp25    |
+----+----------+
23 rows in set (0.00 sec)

mysql> exit
